<svg viewBox="0 0 14 13" fill="none" xmlns="http://www.w3.org/2000/svg">
<path d="M0.139124 6.869L5.463 12.827C5.56151 12.9375 5.69966 13 5.84436 13L8.13209 13C8.58702 13 8.82327 12.4359 8.51345 12.0894L5.66369 8.90232H13.1825C13.6338 8.90232 14 8.52142 14 8.05209L14 4.94748C14 4.47816 13.6338 4.09725 13.1825 4.09725L5.6641 4.09725L8.51385 0.910596C8.82368 0.564128 8.58743 0 8.1325 0L5.84477 0C5.70007 0 5.56192 0.0624924 5.46341 0.173022L0.139534 6.13143C-0.0464439 6.33931 -0.0464449 6.66112 0.139124 6.869Z" fill="#18191d"/>
</svg>
