<svg viewBox="0 0 29 27" fill="none" xmlns="http://www.w3.org/2000/svg">
<path
    d="M22.7649 7.23359C21.7567 2.33403 16.9675 -0.820522 12.0679 0.187671C7.87252 1.051 4.85553 4.73524 4.83628 9.01845C4.83628 9.22252 4.84472 9.43146 4.86283 9.65246C1.87816 9.96839 -0.285295 12.644 0.0306358 15.6287C0.32347 18.3952 2.65817 20.4938 5.44007 20.4911H6.07408C6.05959 20.2906 6.04391 20.0914 6.04391 19.8872C6.04391 15.552 9.55832 12.0375 13.8936 12.0375C18.2289 12.0375 21.7432 15.552 21.7432 19.8872C21.7432 20.0913 21.7276 20.2906 21.7131 20.4911H22.3471C26.0113 20.5011 28.99 17.5387 29 13.8744C29.0096 10.3584 26.2746 7.44542 22.7649 7.23359Z"
    fill="#BBDEFB"
  />
<path
    d="M13.8935 26.5293C17.5618 26.5293 20.5355 23.5555 20.5355 19.8873C20.5355 16.219 17.5618 13.2452 13.8935 13.2452C10.2252 13.2452 7.25146 16.219 7.25146 19.8873C7.25146 23.5555 10.2252 26.5293 13.8935 26.5293Z"
    fill="#4CAF50"
  />
<path
    d="M13.8936 24.114C13.5602 24.114 13.2898 23.8437 13.2898 23.5102V16.2643C13.2898 15.9309 13.5602 15.6605 13.8936 15.6605C14.2271 15.6605 14.4975 15.9309 14.4975 16.2643V23.5102C14.4974 23.8437 14.2271 24.114 13.8936 24.114Z"
    fill="#FAFAFA"
  />
<path
    d="M16.3088 19.284C16.1485 19.2843 15.9947 19.2209 15.8813 19.1077L13.8935 17.1187L11.9057 19.1077C11.6658 19.3394 11.2835 19.3327 11.0519 19.0928C10.8258 18.8588 10.8258 18.4879 11.0519 18.2538L13.4672 15.8385C13.7029 15.6028 14.0851 15.6028 14.321 15.8385L16.7363 18.2538C16.9717 18.49 16.9712 18.8723 16.7349 19.1078C16.6218 19.2206 16.4686 19.2839 16.3088 19.284Z"
    fill="#FAFAFA"
  />
</svg>
