<svg viewBox="0 0 25 25" fill="none" xmlns="http://www.w3.org/2000/svg">
<path
    d="M12.6421 15.1274L15.3368 12.4512H7.42188C6.88267 12.4512 6.44531 12.014 6.44531 11.4746C6.44531 10.9352 6.88267 10.498 7.42188 10.498H15.2384L12.6421 7.9195C12.2593 7.53937 12.2572 6.92101 12.6373 6.53839C13.0173 6.15578 13.6356 6.15368 14.0182 6.53362L16.9603 9.45549C17.5163 10.0075 17.8223 10.742 17.8223 11.5234C17.8223 12.3049 17.5161 13.0394 16.9605 13.5914L14.0182 16.5133C13.8279 16.7025 13.579 16.7969 13.3301 16.7969C13.0791 16.7969 12.8281 16.7007 12.6373 16.5085C12.2572 16.1259 12.2593 15.5075 12.6421 15.1274ZM21.3078 3.3453C18.9507 1.18809 15.8228 0 12.5 0C9.1774 0 6.04935 1.18809 3.69244 3.3453C1.3113 5.52464 0 8.42896 0 11.5234C0 13.9368 0.789261 16.2233 2.28863 18.1725L0.0713349 23.6574C-0.0778198 24.0259 0.0114441 24.448 0.296974 24.7246C0.482941 24.905 0.727844 25 0.976944 25C1.10989 25 1.24397 24.9729 1.37062 24.917L7.65266 22.1479C9.18789 22.7446 10.8166 23.0469 12.5 23.0469C14.6072 23.0469 16.6908 22.5544 18.5253 21.6227C19.0063 21.3783 19.198 20.7907 18.9539 20.3096C18.7096 19.8288 18.1217 19.6369 17.6409 19.8812C16.0791 20.6745 14.3015 21.0938 12.5 21.0938C10.9348 21.0938 9.42783 20.7893 8.02078 20.1891C7.77225 20.083 7.49092 20.0848 7.24354 20.1937L2.78339 22.1598L4.31499 18.3712C4.45137 18.034 4.38881 17.6487 4.15268 17.3717C2.71378 15.6836 1.95312 13.6612 1.95312 11.5234C1.95312 6.24638 6.68449 1.95312 12.5 1.95312C18.3157 1.95312 23.0469 6.24638 23.0469 11.5234C23.0469 13.3406 22.4831 15.1087 21.4163 16.6365C21.1075 17.0786 21.2156 17.6874 21.6578 17.9962C22.0999 18.305 22.7087 18.1969 23.0175 17.7546C24.3145 15.8974 25 13.7426 25 11.5234C25 8.42896 23.6887 5.52464 21.3078 3.3453Z"
    fill="white"
  />
</svg>
