<svg viewBox="0 0 27 43" fill="none" xmlns="http://www.w3.org/2000/svg">
<path d="M24.4078 33.7622C22.595 32.337 20.1679 30.4127 20.1199 30.2891H13.1804H6.24086C6.19278 30.4127 3.76561 32.337 1.95294 33.7622C0.720057 34.7315 0 36.2128 0 37.7812V41.5342C0 41.8471 0.254044 42.1007 0.567005 42.1L13.1804 42.0727L25.7937 42.1C26.1067 42.1007 26.3607 41.8471 26.3607 41.5342V37.7812C26.3607 36.2128 25.6407 34.7315 24.4078 33.7622Z" fill="#7CA1B1"/>
<path d="M9.25684 22.5881H17.0538V34.8286H9.25684V22.5881Z" fill="#FFBD86"/>
<path d="M9.25684 28.998C10.4736 29.5251 11.8145 29.8179 13.2227 29.8179C14.579 29.8179 15.873 29.5462 17.0538 29.0552V22.5881H9.25684V28.998Z" fill="#F6A96C"/>
<path d="M9.62946 31.2136L12.7611 33.4552C13.0117 33.6345 13.3486 33.6345 13.5992 33.4552L16.7308 31.2136H18.0046L13.1801 42.0726L8.30566 33.273L9.62946 31.2136Z" fill="#FFF9E2"/>
<path d="M15.9206 27.7964L15.3426 27.1535L16.7308 25.7642L17.7905 26.7027C19.5688 28.5273 20.6553 30.9148 20.8632 33.454L20.9253 34.213C20.9479 34.4888 20.7383 34.7289 20.4619 34.7438L19.3786 34.8022L13.1802 42.0726L16.7309 31.2137C17.1146 30.0125 16.8028 28.6975 15.9206 27.7964Z" fill="#678D98"/>
<path d="M10.4395 27.7964L11.0175 27.1535L9.62932 25.7642L8.56955 26.7027C6.79134 28.5273 5.70482 30.9148 5.49691 33.454L5.43478 34.213C5.41217 34.4888 5.62177 34.7289 5.89816 34.7438L6.98147 34.8022L13.1799 42.0726L9.62924 31.2137C9.24551 30.0125 9.55728 28.6975 10.4395 27.7964Z" fill="#678D98"/>
<path d="M1.95294 33.7623C2.05004 33.686 2.14917 33.6079 2.24931 33.5291L4.24111 37.0203C4.44622 37.3798 4.55407 37.7867 4.55407 38.2005V42.0913L0.567005 42.1C0.254044 42.1006 0 41.8471 0 41.5341V37.7811C0 36.2129 0.720057 34.7315 1.95294 33.7623Z" fill="#678D98"/>
<path d="M2.86977 16.1914L1.88298 8.34025C1.61488 6.20742 2.83371 4.16619 4.83846 3.39043C6.49816 1.25159 9.05332 0 11.7606 0H14.6006C17.3079 0 19.8631 1.25151 21.5227 3.39043C23.5274 4.16619 24.7462 6.20742 24.4782 8.34025L23.4914 16.1914L23.2405 17.5202H3.4157L2.86977 16.1914Z" fill="#918291"/>
<path d="M5.99971 8.34025C5.73161 6.20751 6.95044 4.16619 8.95519 3.39043C10.4837 1.42047 12.7719 0.204183 15.2389 0.0241261C15.0273 0.00871924 14.8144 0 14.6005 0H11.7605C9.0533 0 6.49806 1.25159 4.83844 3.39043C2.83378 4.16619 1.61494 6.20742 1.88295 8.34025L2.86967 16.1914L3.41559 17.5202H7.53226L6.98642 16.1914L5.99971 8.34025Z" fill="#837484"/>
<path d="M21.6917 20.144H22.2554C23.4051 20.144 24.3604 19.2577 24.4464 18.1113C24.5419 16.8367 23.5335 15.7499 22.2554 15.7499H21.6252H20.9272V20.144H21.6917Z" fill="#FFBD86"/>
<path d="M4.73545 15.7499H4.18986C2.91169 15.7499 1.9033 16.8367 1.99896 18.1113C2.08497 19.2577 3.04019 20.144 4.18986 20.144H4.8383H6.06467V15.7499H4.73545Z" fill="#F6A96C"/>
<path d="M9.15724 10.4197C7.97235 9.69028 6.4254 9.99841 5.61037 11.1262L5.4083 11.4059C5.08095 11.8588 4.90479 12.4035 4.90479 12.9624V14.7953V19.807C4.90479 24.4008 8.62883 28.1249 13.2227 28.1249C17.8165 28.1249 21.5406 24.4008 21.5406 19.807V14.7953V12.9624C21.5406 12.4035 21.3644 11.8588 21.0371 11.4059L20.8261 11.114C20.0148 9.9913 18.4772 9.68012 17.2931 10.3991L17.2185 10.4444C14.7397 11.9495 11.6268 11.9399 9.15724 10.4197Z" fill="#FFE5C2"/>
<path d="M24.4078 33.7622C24.3107 33.6859 24.2115 33.6078 24.1114 33.529L22.1196 37.0202C21.9145 37.3797 21.8066 37.7866 21.8066 38.2004V42.0912L25.7937 42.0999C26.1067 42.1006 26.3607 41.847 26.3607 41.5341V37.7811C26.3607 36.2128 25.6407 34.7314 24.4078 33.7622Z" fill="#678D98"/>
<path d="M8.30588 19.8069V14.7952V12.9623C8.30588 12.4034 8.48213 11.8588 8.8094 11.4059L9.01146 11.1262C9.15275 10.9307 9.31638 10.7605 9.49593 10.6153C9.3819 10.5528 9.26864 10.4883 9.15715 10.4197C7.97227 9.69021 6.42532 9.99835 5.61037 11.1261L5.4083 11.4058C5.08095 11.8588 4.90479 12.4034 4.90479 12.9622V14.7951V19.8068C4.90479 24.4007 8.62883 28.1247 13.2227 28.1247C13.8055 28.1247 14.3742 28.0645 14.9232 27.9504C11.1451 27.1656 8.30588 23.8179 8.30588 19.8069Z" fill="#FED2A4"/>
<path d="M21.037 11.4058L20.826 11.1139C20.0147 9.99123 18.477 9.68005 17.293 10.399L17.2184 10.4443C14.7396 11.9494 11.6267 11.9399 9.15715 10.4197C7.97226 9.69021 6.42532 9.99834 5.61037 11.1261L5.4083 11.4058C5.08095 11.8588 4.90479 12.4034 4.90479 12.9622V14.7951V15.7049C4.90479 15.146 5.08103 14.6013 5.4083 14.1484L5.61037 13.8687C6.42532 12.7409 7.97226 12.4329 9.15715 13.1622C11.6267 14.6825 14.7396 14.692 17.2184 13.1869L17.293 13.1416C18.477 12.4226 20.0147 12.7338 20.826 13.8565L21.037 14.1484C21.3643 14.6013 21.5405 15.146 21.5405 15.7049V14.7951V12.9622C21.5405 12.4034 21.3643 11.8588 21.037 11.4058Z" fill="#FED2A4"/>
</svg>
