<svg viewBox="0 0 10 8" fill="none" xmlns="http://www.w3.org/2000/svg">
<path d="M8.96553 4.05246L5.51217 7.5063C5.37511 7.64337 5.15288 7.64339 5.01582 7.50632L4.16139 6.65188C4.02433 6.51483 4.02433 6.29263 4.16137 6.15557L6.51216 3.80429L5.13412 2.42625L4.16142 1.45355C4.02437 1.3165 4.02437 1.09428 4.16142 0.95721L5.01584 0.10279C5.1529 -0.0342634 5.37511 -0.0342634 5.51217 0.10279L7.83562 2.42625L8.96551 3.55613C9.10257 3.69321 9.10257 3.91541 8.96553 4.05246Z" fill="#002A51"/>
<path d="M4.90694 4.05246L1.45357 7.5063C1.31652 7.64337 1.09428 7.64339 0.957231 7.50632L0.102793 6.65188C-0.0342611 6.51483 -0.0342611 6.29263 0.102774 6.15557L2.45356 3.80429L1.07552 2.42625L0.102829 1.45355C-0.0342244 1.3165 -0.0342244 1.09428 0.102829 0.95721L0.957249 0.10279C1.0943 -0.0342634 1.31652 -0.0342634 1.45357 0.10279L3.77703 2.42625L4.90692 3.55613C5.04397 3.69321 5.04397 3.91541 4.90694 4.05246Z" fill="#002A51"/>
</svg>
