<svg viewBox="0 0 19 17" fill="none" xmlns="http://www.w3.org/2000/svg">
<path d="M3.58023 9.62173H7.20663L10.7227 11.0771C11.3377 11.3316 11.6274 12.0387 11.368 12.6516L11.356 12.6798C11.0944 13.2977 10.3963 13.5939 9.77596 13.3547C8.77816 12.9698 7.46959 12.4668 7.46959 12.4668L10.8388 13.7621C11.5494 14.0352 12.3255 14.0905 13.0676 13.9205L16.5194 13.1301C17.152 12.9853 17.78 13.3884 17.9121 14.0237C18.0383 14.6307 17.6642 15.2293 17.0633 15.3821L12.9446 16.4289C12.168 16.6263 11.3491 16.5751 10.6031 16.2825L5.28755 14.1977H3.58023V9.62173Z" fill="#FFD4BE"/>
<path d="M3.58023 9.62173H7.20663L10.7227 11.0771C11.3377 11.3316 11.6274 12.0387 11.368 12.6516L11.356 12.6798C11.0944 13.2977 10.3963 13.5939 9.77596 13.3547C8.77816 12.9698 7.46959 12.4668 7.46959 12.4668L10.8388 13.7621C11.5494 14.0352 12.3255 14.0905 13.0676 13.9205L16.5194 13.1301C17.152 12.9853 17.78 13.3884 17.9121 14.0237C18.0383 14.6307 17.6642 15.2293 17.0633 15.3821L12.9446 16.4289C12.168 16.6263 11.3491 16.5751 10.6031 16.2825L5.28755 14.1977H3.58023V9.62173Z" fill="#FFD4BE"/>
<path d="M0.969849 8.80849H3.58027V14.8703H0.969849V8.80849Z" fill="#98A1B3"/>
<path d="M8.1113 5.86183V9.99596L7.20685 9.6216H5.03842V5.86183H8.1113Z" fill="#60A4FF"/>
<path d="M11.1845 3.61163V11.4163C11.0644 11.2723 10.9085 11.1542 10.7228 11.0771L8.11166 9.99636V3.60126L11.1845 3.61163Z" fill="#F6838D"/>
<path d="M14.2574 7.6392V13.6482L13.0678 13.9205C12.4442 14.0633 11.7967 14.0472 11.1844 13.8764V12.9694C11.2528 12.8833 11.3109 12.7865 11.356 12.6799L11.3677 12.6518C11.5491 12.2237 11.4626 11.75 11.1844 11.4163V7.6392H14.2574Z" fill="#FFC15A"/>
<path d="M15.9271 4.41248C15.9271 4.70023 15.6939 4.93341 15.4062 4.93341C15.1185 4.93341 14.8853 4.70023 14.8853 4.41248C14.8853 4.12474 15.1185 3.89156 15.4062 3.89156C15.6939 3.89156 15.9271 4.12474 15.9271 4.41248Z" fill="#98A1B3"/>
<path d="M14.0121 1.91321C14.0121 2.20081 13.7789 2.43413 13.4912 2.43413C13.2034 2.43413 12.9702 2.20081 12.9702 1.91321C12.9702 1.62546 13.2034 1.39228 13.4912 1.39228C13.7789 1.39228 14.0121 1.62546 14.0121 1.91321Z" fill="#98A1B3"/>
<path d="M18.2498 13.9535C18.167 13.5547 17.9326 13.2141 17.5897 12.9941C17.2469 12.7742 16.8397 12.7032 16.4426 12.794L14.6021 13.2154V12.463C14.9712 12.1154 15.3556 11.6614 15.6289 11.2465C16.1082 10.5189 16.4474 9.71994 16.6371 8.8722C16.8626 7.86363 16.8674 6.79591 16.6509 5.78411C16.6111 5.59794 16.4277 5.47912 16.2416 5.51913C16.0553 5.55887 15.9367 5.74221 15.9765 5.92851C16.1723 6.8436 16.168 7.80947 15.9639 8.7216C15.7926 9.48756 15.486 10.2095 15.0529 10.867C14.9245 11.0619 14.7688 11.2664 14.6021 11.4617V7.6392C14.6021 7.44872 14.4478 7.29434 14.2573 7.29434H11.5293V3.61163C11.5293 3.42169 11.3756 3.26745 11.1856 3.26677L8.11274 3.2564C8.11233 3.2564 8.11207 3.2564 8.11166 3.2564C8.02033 3.2564 7.93277 3.2925 7.86824 3.35703C7.80331 3.42169 7.7668 3.50952 7.7668 3.60126V5.51697H5.03838C4.84803 5.51697 4.69352 5.67135 4.69352 5.86183V9.27687H3.92513V8.80849C3.92513 8.61814 3.77076 8.46376 3.58028 8.46376H3.22653C3.16631 8.13224 3.13142 7.79546 3.1232 7.45923C3.103 6.64167 3.23259 5.84176 3.50821 5.08146C3.57246 4.90418 3.64547 4.72744 3.72509 4.55636C3.80551 4.38366 3.73061 4.17849 3.55805 4.09807C3.38535 4.01792 3.18019 4.09255 3.0999 4.26525C3.01166 4.45465 2.93084 4.65025 2.85984 4.84639C2.55486 5.68765 2.41153 6.57256 2.43362 7.4762C2.44184 7.80651 2.47336 8.13709 2.52684 8.46376H0.969858C0.779378 8.46376 0.625 8.61814 0.625 8.80862V14.8703C0.625 15.0608 0.779378 15.2152 0.969858 15.2152H3.58028C3.77076 15.2152 3.92513 15.0608 3.92513 14.8703V14.5424H5.22239L10.4773 16.6035C10.9679 16.796 11.4818 16.8929 11.9985 16.8929C12.3429 16.8929 12.6888 16.8497 13.0295 16.7631L17.1483 15.7163C17.9302 15.5176 18.4139 14.7433 18.2498 13.9535ZM13.9126 7.98406V13.3733L12.9906 13.5844C12.8915 13.607 12.7912 13.6249 12.6905 13.6389C12.3063 13.6919 11.9143 13.6807 11.5341 13.6054C11.5325 13.605 11.5309 13.6047 11.5293 13.6043V13.0814C11.7922 12.6891 11.8794 12.1917 11.7416 11.7378C11.7032 11.6111 11.6486 11.489 11.5792 11.3762C11.5635 11.3506 11.547 11.3255 11.5299 11.301C11.5298 11.3006 11.5295 11.3004 11.5293 11.3V7.98392H13.9126V7.98406ZM8.45652 3.94733L10.8397 3.95528V10.7522L9.5078 10.201L8.45652 9.76574V3.94733ZM5.38324 6.20669H7.7664V9.48002L7.33869 9.30301C7.2968 9.28563 7.25194 9.27674 7.20681 9.27674H5.38324V6.20669ZM3.23542 14.5255H1.31472V9.15335H2.94175C2.94242 9.15335 2.94323 9.15348 2.94404 9.15348C2.94471 9.15348 2.94525 9.15335 2.94592 9.15335H3.23542V14.5255ZM16.9784 15.0479L12.8597 16.0947C12.1487 16.2753 11.4119 16.2291 10.7291 15.9615L5.41355 13.8766C5.3734 13.8608 5.3307 13.8528 5.28759 13.8528H3.92513V9.96659H7.13811L9.36945 10.8902L10.5905 11.3956C11.0225 11.5748 11.2293 12.0815 11.0521 12.513C11.0166 12.5996 10.9725 12.6819 10.914 12.7554C10.6981 13.0279 10.3426 13.148 10.0101 13.0672C10.0074 13.0665 10.0047 13.0659 10.0021 13.0652C9.98211 13.0602 9.96231 13.0544 9.94264 13.048L7.62226 12.1559C7.6034 12.1486 7.59343 12.1449 7.59343 12.1449C7.41575 12.0764 7.21624 12.1652 7.14781 12.343C7.07951 12.5207 7.16815 12.7203 7.34597 12.7886C7.34597 12.7886 8.65427 13.2916 9.65194 13.6764C9.67201 13.6842 9.69195 13.6915 9.71202 13.6982L10.4781 13.9928C10.7097 14.0819 10.9402 14.1705 11.1812 14.2321C11.5904 14.3366 12.0152 14.3786 12.4371 14.3556C12.675 14.3427 12.9125 14.3098 13.1447 14.2567L14.3343 13.9845C14.3355 13.9842 14.3368 13.9837 14.338 13.9834L16.5965 13.4664C16.8114 13.4172 17.0319 13.4556 17.2173 13.5745C17.4029 13.6936 17.5297 13.878 17.5745 14.0938C17.6634 14.5213 17.4016 14.9404 16.9784 15.0479Z" fill="black"/>
<path d="M5.03501 2.55995C5.11746 2.55995 5.20017 2.53058 5.26604 2.47104C5.8814 1.91522 6.61624 1.47189 7.3915 1.18887C8.23142 0.882266 9.15216 0.751462 10.0543 0.810735C10.7 0.853168 11.3326 0.990977 11.9345 1.22025C12.1123 1.28801 12.3117 1.19884 12.3794 1.02075C12.4473 0.842796 12.358 0.643559 12.1799 0.5758C11.5139 0.322006 10.814 0.169514 10.0996 0.1225C9.10246 0.0570304 8.08418 0.201709 7.15495 0.541045C6.29725 0.854111 5.48427 1.34459 4.80385 1.95914C4.6624 2.08685 4.65136 2.30494 4.77906 2.44625C4.84709 2.52169 4.94085 2.55995 5.03501 2.55995Z" fill="black"/>
<path d="M12.8635 5.02111C12.9289 5.07783 13.0094 5.10558 13.0896 5.10558C13.1859 5.10558 13.2818 5.06543 13.3501 4.98703L16.1874 1.72098C16.3124 1.57724 16.297 1.35942 16.1533 1.23454C16.0094 1.10966 15.7917 1.12489 15.6669 1.26862L12.8294 4.53467C12.7044 4.67841 12.7198 4.89624 12.8635 5.02111Z" fill="black"/>
<path d="M15.4062 3.5467C14.9288 3.5467 14.5404 3.93507 14.5404 4.41248C14.5404 4.8899 14.9288 5.27827 15.4062 5.27827C15.8836 5.27827 16.272 4.88976 16.272 4.41248C16.272 3.93507 15.8836 3.5467 15.4062 3.5467ZM15.4062 4.58855C15.3091 4.58855 15.2301 4.50961 15.2301 4.41248C15.2301 4.31549 15.3091 4.23642 15.4062 4.23642C15.5032 4.23642 15.5823 4.31549 15.5823 4.41248C15.5823 4.50961 15.5032 4.58855 15.4062 4.58855Z" fill="black"/>
<path d="M13.4912 2.77899C13.9686 2.77899 14.357 2.39062 14.357 1.9132C14.357 1.43579 13.9686 1.04742 13.4912 1.04742C13.0138 1.04742 12.6254 1.43579 12.6254 1.9132C12.6254 2.39062 13.0138 2.77899 13.4912 2.77899ZM13.4912 1.737C13.5883 1.737 13.6672 1.81608 13.6672 1.9132C13.6672 2.0102 13.5883 2.08927 13.4912 2.08927C13.3941 2.08927 13.3151 2.0102 13.3151 1.9132C13.3151 1.81608 13.3941 1.737 13.4912 1.737Z" fill="black"/>
<path d="M3.80905 3.37037C3.86428 3.50293 4.0002 3.59049 4.1442 3.58295C4.28659 3.57554 4.41133 3.47922 4.45539 3.34397C4.49984 3.20751 4.45134 3.05205 4.33724 2.9649C4.22099 2.87626 4.05772 2.87073 3.93594 2.95169C3.80083 3.04155 3.74667 3.22071 3.80905 3.37037Z" fill="black"/>
</svg>
