<svg fill="none" version="1.1" viewBox="0 0 20.898 19.968" xmlns="http://www.w3.org/2000/svg">
 <path d="m1.2603 19.942c-0.51845-0.06702-0.98305-0.50844-1.0898-1.0354-0.024996-0.12342-0.046571-0.16362-0.10117-0.1885l-0.069399-0.03162 0.14112-0.27849v-5.7352c0-3.1544 0.00555-5.7352 0.012342-5.7352 0.00679 0 0.13209 0.076621 0.27845 0.17027 0.16864 0.1079 0.27938 0.16223 0.30234 0.14831 0.019929-0.012075 2.1043-1.6244 4.632-3.583 2.5277-1.9586 4.6476-3.5875 4.711-3.6198 0.16676-0.085076 0.41839-0.066127 0.58513 0.044063 0.06718 0.044394 2.2177 1.7044 4.7789 3.6889 2.5612 1.9845 4.6696 3.608 4.6853 3.6079 0.01572-1.399e-4 0.18936-0.10294 0.38587-0.22844 0.19651-0.1255 0.36329-0.22818 0.37063-0.22818 0.02811 0 0.01291 11.734-0.01544 11.916-0.08775 0.56274-0.55402 1.0167-1.1196 1.0901-0.25964 0.03369-18.227 0.03195-18.488-0.0018zm18.187-1.1651c0.05492-0.05492 0.05766-0.06767 0.02176-0.10133-0.04985-0.04674-0.03025-0.03347-4.0924-2.7708l-3.2681-2.2023-0.34032 0.2173c-0.65273 0.41677-0.83156 0.48639-1.2494 0.48639-0.26489 0-0.49945-0.05084-0.70056-0.15185-0.072539-0.036432-0.3424-0.20103-0.5997-0.36576-0.35964-0.23026-0.4794-0.29398-0.5179-0.27557-0.02755 0.01317-1.7371 1.1616-3.799 2.552-2.7488 1.8536-3.7447 2.5391-3.733 2.5695 0.046721 0.12175-0.30751 0.11747 9.2026 0.11118l9.0132-6e-3zm0.46337-7.7937-0.0072-2.2805-3.434 2.2014c-1.8887 1.2108-3.4346 2.214-3.4353 2.2294-7.47e-4 0.01539 1.5445 1.07 3.434 2.3436l3.4353 2.3157 0.0072-2.2645c0.0039-1.2455 0.0039-3.2907 0-4.545zm-15.432 4.3037c1.8375-1.2387 3.3434-2.2614 3.3465-2.2727s-1.4681-0.96468-3.2694-2.1185c-1.8013-1.1538-3.3111-2.1212-3.3553-2.1496l-0.08026-0.051698v4.4223c0 2.4323 0.00396 4.4223 0.00881 4.4223s1.5122-1.0134 3.3497-2.2521zm6.0794-2.3283c0.11618-0.07308 0.21123-0.13916 0.21123-0.14685-6e-6 -0.0077-0.09874-0.07902-0.21942-0.1585l-0.2194-0.14452-0.20654 0.13735c-0.1136 0.07554-0.20654 0.14932-0.20654 0.16394 0 0.02548 0.37147 0.27961 0.41052 0.28085 0.0104 3.3e-4 0.11397-0.05919 0.23015-0.13227zm-1.0744-1.0453c0.25109-0.17107 0.52062-0.34087 0.59895-0.37735 0.28205-0.13133 0.39872-0.0932 1.0439 0.34117 0.28365 0.19097 0.52767 0.34721 0.54226 0.34721 0.0498 0 7.1157-4.5619 7.1157-4.594 0-0.045985-8.4315-6.5737-8.4708-6.5581-0.04878 0.019363-8.4514 6.5351-8.4578 6.5585-0.0066 0.024004 7.0967 4.5934 7.1409 4.5935 0.016729 5.5e-5 0.23586-0.13988 0.48695-0.31094z" fill="#000" stroke-width=".027972"/>
</svg>
